-------------------------------------------------------------------------------
Test set: org.fasttrackit.tauwebshopmagento.MainPageTest
-------------------------------------------------------------------------------
Tests run: 3, Failures: 2, Errors: 0, Skipped: 0, Time elapsed: 18.568 s <<< FAILURE! - in org.fasttrackit.tauwebshopmagento.MainPageTest
search(org.fasttrackit.tauwebshopmagento.MainPageTest)  Time elapsed: 4.695 s  <<< FAILURE!
com.codeborne.selenide.ex.ElementNotFound: 
Element not found {[data-test='menu-main-icon-search']}
Expected: visible or transparent: visible or have css value opacity=0
Screenshot: file:/C:/Users/Silvia/Desktop/Proiect%20final/tau-webshop-magento/build/reports/tests/1629906732181.0.png
Page source: file:/C:/Users/Silvia/Desktop/Proiect%20final/tau-webshop-magento/build/reports/tests/1629906732181.0.html
Timeout: 4 s.
Caused by: NoSuchElementException: no such element: Unable to locate element: {"method":"css selector","selector":"[data-test='menu-main-icon-search']"}
	at org.fasttrackit.tauwebshopmagento.MainPageTest.search(MainPageTest.java:31)
Caused by: org.openqa.selenium.NoSuchElementException: 
no such element: Unable to locate element: {"method":"css selector","selector":"[data-test='menu-main-icon-search']"}
  (Session info: chrome=92.0.4515.159)
For documentation on this error, please visit: https://www.seleniumhq.org/exceptions/no_such_element.html
Build info: version: '3.141.59', revision: 'e82be7d358', time: '2018-11-14T08:17:03'
System info: host: 'DESKTOP-MO6S8JF', ip: '192.168.1.104', os.name: 'Windows 10', os.arch: 'amd64', os.version: '10.0', java.version: '16.0.1'
Driver info: org.openqa.selenium.chrome.ChromeDriver
Capabilities {acceptInsecureCerts: true, browserName: chrome, browserVersion: 92.0.4515.159, chrome: {chromedriverVersion: 92.0.4515.107 (87a818b10553..., userDataDir: C:\Users\Silvia\AppData\Loc...}, goog:chromeOptions: {debuggerAddress: localhost:64908}, javascriptEnabled: true, networkConnectionEnabled: false, pageLoadStrategy: normal, platform: WINDOWS, platformName: WINDOWS, proxy: Proxy(), setWindowRect: true, strictFileInteractability: false, timeouts: {implicit: 0, pageLoad: 300000, script: 30000}, unhandledPromptBehavior: dismiss and notify, webauthn:extension:credBlob: true, webauthn:extension:largeBlob: true, webauthn:virtualAuthenticators: true}
Session ID: b7ca4cc808e9908e9ed83b43d32f45cf
*** Element info: {Using=css selector, value=[data-test='menu-main-icon-search']}
	at org.fasttrackit.tauwebshopmagento.MainPageTest.search(MainPageTest.java:31)

toolsMenu(org.fasttrackit.tauwebshopmagento.MainPageTest)  Time elapsed: 4.57 s  <<< FAILURE!
com.codeborne.selenide.ex.ElementNotFound: 
Element not found {By.xpath: //div[contains(@class, 'menu-main__item') and text() = 'Developer Tools']}
Expected: exist
Screenshot: file:/C:/Users/Silvia/Desktop/Proiect%20final/tau-webshop-magento/build/reports/tests/1629906737371.1.png
Page source: file:/C:/Users/Silvia/Desktop/Proiect%20final/tau-webshop-magento/build/reports/tests/1629906737371.1.html
Timeout: 4 s.
Caused by: NoSuchElementException: no such element: Unable to locate element: {"method":"xpath","selector":"//div[contains(@class, 'menu-main__item') and text() = 'Developer Tools']"}
	at org.fasttrackit.tauwebshopmagento.MainPageTest.toolsMenu(MainPageTest.java:41)
Caused by: org.openqa.selenium.NoSuchElementException: 
no such element: Unable to locate element: {"method":"xpath","selector":"//div[contains(@class, 'menu-main__item') and text() = 'Developer Tools']"}
  (Session info: chrome=92.0.4515.159)
For documentation on this error, please visit: https://www.seleniumhq.org/exceptions/no_such_element.html
Build info: version: '3.141.59', revision: 'e82be7d358', time: '2018-11-14T08:17:03'
System info: host: 'DESKTOP-MO6S8JF', ip: '192.168.1.104', os.name: 'Windows 10', os.arch: 'amd64', os.version: '10.0', java.version: '16.0.1'
Driver info: org.openqa.selenium.chrome.ChromeDriver
Capabilities {acceptInsecureCerts: true, browserName: chrome, browserVersion: 92.0.4515.159, chrome: {chromedriverVersion: 92.0.4515.107 (87a818b10553..., userDataDir: C:\Users\Silvia\AppData\Loc...}, goog:chromeOptions: {debuggerAddress: localhost:64908}, javascriptEnabled: true, networkConnectionEnabled: false, pageLoadStrategy: normal, platform: WINDOWS, platformName: WINDOWS, proxy: Proxy(), setWindowRect: true, strictFileInteractability: false, timeouts: {implicit: 0, pageLoad: 300000, script: 30000}, unhandledPromptBehavior: dismiss and notify, webauthn:extension:credBlob: true, webauthn:extension:largeBlob: true, webauthn:virtualAuthenticators: true}
Session ID: b7ca4cc808e9908e9ed83b43d32f45cf
*** Element info: {Using=xpath, value=//div[contains(@class, 'menu-main__item') and text() = 'Developer Tools']}
	at org.fasttrackit.tauwebshopmagento.MainPageTest.toolsMenu(MainPageTest.java:41)

