<?xml version="1.0" encoding="UTF-8"?>
<!DOCTYPE suite SYSTEM "https://testng.org/testng-1.0.dtd">
<suite thread-count="1" name="Failed suite [Surefire suite]" verbose="0">
  <test thread-count="1" name="Surefire test(failed)" verbose="0">
    <classes>
      <class name="org.fasttrackit.tauwebshopmagento.MadisonIslandTests">
        <methods>
          <include name="I_can_login"/>
          <include name="setUpAll"/>
          <include name="homepage_should_be_translated_to_french"/>
          <include name="when_logged_in_welcome_message_contains_users_full_name"/>
          <include name="setUp"/>
        </methods>
      </class> <!-- org.fasttrackit.tauwebshopmagento.MadisonIslandTests -->
      <class name="org.fasttrackit.tauwebshopmagento.HomepageTests">
        <methods>
          <include name="homepage_should_be_translated_to_french"/>
          <include name="when_logged_in_welcome_message_contains_users_full_name"/>
          <include name="setUp"/>
          <include name="I_can_logout"/>
          <include name="I_can_login"/>
          <include name="setUpAll"/>
          <include name="I_can_recover_forgotten_password"/>
        </methods>
      </class> <!-- org.fasttrackit.tauwebshopmagento.HomepageTests -->
    </classes>
  </test> <!-- Surefire test(failed) -->
</suite> <!-- Failed suite [Surefire suite] -->
