<?xml version="1.0" encoding="UTF-8"?>
<testng-results ignored="0" total="40" passed="35" failed="5" skipped="0">
  <reporter-output>
  </reporter-output>
  <suite started-at="2021-10-25T10:13:06 EEST" name="Surefire suite" finished-at="2021-10-25T10:16:27 EEST" duration-ms="201182">
    <groups>
    </groups>
    <test started-at="2021-10-25T10:13:06 EEST" name="Surefire test" finished-at="2021-10-25T10:16:27 EEST" duration-ms="201182">
      <class name="org.fasttrackit.tauwebshopmagento.MadisonIslandTests">
        <test-method is-config="true" signature="setUpAll()[pri:0, instance:org.fasttrackit.tauwebshopmagento.MadisonIslandTests@385ef531]" started-at="2021-10-25T10:14:52 EEST" name="setUpAll" finished-at="2021-10-25T10:14:52 EEST" duration-ms="0" status="PASS">
          <reporter-output>
          </reporter-output>
        </test-method> <!-- setUpAll -->
        <test-method is-config="true" signature="setUp()[pri:0, instance:org.fasttrackit.tauwebshopmagento.MadisonIslandTests@385ef531]" started-at="2021-10-25T10:14:52 EEST" name="setUp" finished-at="2021-10-25T10:14:52 EEST" duration-ms="529" status="PASS">
          <reporter-output>
          </reporter-output>
        </test-method> <!-- setUp -->
        <test-method signature="I_can_add_1_item_to_cart()[pri:0, instance:org.fasttrackit.tauwebshopmagento.MadisonIslandTests@385ef531]" started-at="2021-10-25T10:14:52 EEST" name="I_can_add_1_item_to_cart" finished-at="2021-10-25T10:14:59 EEST" duration-ms="6346" status="PASS">
          <reporter-output>
          </reporter-output>
        </test-method> <!-- I_can_add_1_item_to_cart -->
        <test-method is-config="true" signature="setUp()[pri:0, instance:org.fasttrackit.tauwebshopmagento.MadisonIslandTests@385ef531]" started-at="2021-10-25T10:14:59 EEST" name="setUp" finished-at="2021-10-25T10:14:59 EEST" duration-ms="514" status="PASS">
          <reporter-output>
          </reporter-output>
        </test-method> <!-- setUp -->
        <test-method signature="I_can_add_23_from_the_same_item_to_cart()[pri:0, instance:org.fasttrackit.tauwebshopmagento.MadisonIslandTests@385ef531]" started-at="2021-10-25T10:14:59 EEST" name="I_can_add_23_from_the_same_item_to_cart" finished-at="2021-10-25T10:15:04 EEST" duration-ms="5122" status="PASS">
          <reporter-output>
          </reporter-output>
        </test-method> <!-- I_can_add_23_from_the_same_item_to_cart -->
        <test-method is-config="true" signature="setUp()[pri:0, instance:org.fasttrackit.tauwebshopmagento.MadisonIslandTests@385ef531]" started-at="2021-10-25T10:15:04 EEST" name="setUp" finished-at="2021-10-25T10:15:05 EEST" duration-ms="501" status="PASS">
          <reporter-output>
          </reporter-output>
        </test-method> <!-- setUp -->
        <test-method signature="I_can_add_2_different_products_to_cart()[pri:0, instance:org.fasttrackit.tauwebshopmagento.MadisonIslandTests@385ef531]" started-at="2021-10-25T10:15:05 EEST" name="I_can_add_2_different_products_to_cart" finished-at="2021-10-25T10:15:16 EEST" duration-ms="11326" status="PASS">
          <reporter-output>
          </reporter-output>
        </test-method> <!-- I_can_add_2_different_products_to_cart -->
        <test-method is-config="true" signature="setUp()[pri:0, instance:org.fasttrackit.tauwebshopmagento.MadisonIslandTests@385ef531]" started-at="2021-10-25T10:15:16 EEST" name="setUp" finished-at="2021-10-25T10:15:17 EEST" duration-ms="353" status="PASS">
          <reporter-output>
          </reporter-output>
        </test-method> <!-- setUp -->
        <test-method signature="I_can_create_an_account()[pri:0, instance:org.fasttrackit.tauwebshopmagento.MadisonIslandTests@385ef531]" started-at="2021-10-25T10:15:17 EEST" name="I_can_create_an_account" finished-at="2021-10-25T10:15:19 EEST" duration-ms="2284" status="PASS">
          <reporter-output>
          </reporter-output>
        </test-method> <!-- I_can_create_an_account -->
        <test-method is-config="true" signature="setUp()[pri:0, instance:org.fasttrackit.tauwebshopmagento.MadisonIslandTests@385ef531]" started-at="2021-10-25T10:15:19 EEST" name="setUp" finished-at="2021-10-25T10:15:19 EEST" duration-ms="501" status="PASS">
          <reporter-output>
          </reporter-output>
        </test-method> <!-- setUp -->
        <test-method signature="I_can_login()[pri:0, instance:org.fasttrackit.tauwebshopmagento.MadisonIslandTests@385ef531]" started-at="2021-10-25T10:15:19 EEST" name="I_can_login" finished-at="2021-10-25T10:15:24 EEST" duration-ms="5055" status="PASS">
          <reporter-output>
          </reporter-output>
        </test-method> <!-- I_can_login -->
        <test-method is-config="true" signature="setUp()[pri:0, instance:org.fasttrackit.tauwebshopmagento.MadisonIslandTests@385ef531]" started-at="2021-10-25T10:15:24 EEST" name="setUp" finished-at="2021-10-25T10:15:25 EEST" duration-ms="843" status="PASS">
          <reporter-output>
          </reporter-output>
        </test-method> <!-- setUp -->
        <test-method signature="I_can_add_1_item_to_wishlist()[pri:0, instance:org.fasttrackit.tauwebshopmagento.MadisonIslandTests@385ef531]" started-at="2021-10-25T10:15:25 EEST" name="I_can_add_1_item_to_wishlist" finished-at="2021-10-25T10:15:31 EEST" depends-on-methods="org.fasttrackit.tauwebshopmagento.MadisonIslandTests.I_can_login" duration-ms="6115" status="PASS">
          <reporter-output>
          </reporter-output>
        </test-method> <!-- I_can_add_1_item_to_wishlist -->
        <test-method is-config="true" signature="setUp()[pri:0, instance:org.fasttrackit.tauwebshopmagento.MadisonIslandTests@385ef531]" started-at="2021-10-25T10:15:31 EEST" name="setUp" finished-at="2021-10-25T10:15:33 EEST" duration-ms="1261" status="PASS">
          <reporter-output>
          </reporter-output>
        </test-method> <!-- setUp -->
        <test-method signature="I_can_logout()[pri:0, instance:org.fasttrackit.tauwebshopmagento.MadisonIslandTests@385ef531]" started-at="2021-10-25T10:15:33 EEST" name="I_can_logout" finished-at="2021-10-25T10:15:34 EEST" duration-ms="1018" status="PASS">
          <reporter-output>
          </reporter-output>
        </test-method> <!-- I_can_logout -->
        <test-method is-config="true" signature="setUp()[pri:0, instance:org.fasttrackit.tauwebshopmagento.MadisonIslandTests@385ef531]" started-at="2021-10-25T10:15:34 EEST" name="setUp" finished-at="2021-10-25T10:15:34 EEST" duration-ms="487" status="PASS">
          <reporter-output>
          </reporter-output>
        </test-method> <!-- setUp -->
        <test-method signature="I_can_open_products_details()[pri:0, instance:org.fasttrackit.tauwebshopmagento.MadisonIslandTests@385ef531]" started-at="2021-10-25T10:15:34 EEST" name="I_can_open_products_details" finished-at="2021-10-25T10:15:37 EEST" duration-ms="2583" status="PASS">
          <reporter-output>
          </reporter-output>
        </test-method> <!-- I_can_open_products_details -->
        <test-method is-config="true" signature="setUp()[pri:0, instance:org.fasttrackit.tauwebshopmagento.MadisonIslandTests@385ef531]" started-at="2021-10-25T10:15:37 EEST" name="setUp" finished-at="2021-10-25T10:15:37 EEST" duration-ms="471" status="PASS">
          <reporter-output>
          </reporter-output>
        </test-method> <!-- setUp -->
        <test-method signature="I_can_open_register_page()[pri:0, instance:org.fasttrackit.tauwebshopmagento.MadisonIslandTests@385ef531]" started-at="2021-10-25T10:15:37 EEST" name="I_can_open_register_page" finished-at="2021-10-25T10:15:38 EEST" duration-ms="1259" status="PASS">
          <reporter-output>
          </reporter-output>
        </test-method> <!-- I_can_open_register_page -->
        <test-method is-config="true" signature="setUp()[pri:0, instance:org.fasttrackit.tauwebshopmagento.MadisonIslandTests@385ef531]" started-at="2021-10-25T10:15:38 EEST" name="setUp" finished-at="2021-10-25T10:15:39 EEST" duration-ms="417" status="PASS">
          <reporter-output>
          </reporter-output>
        </test-method> <!-- setUp -->
        <test-method signature="I_can_recover_forgotten_password()[pri:0, instance:org.fasttrackit.tauwebshopmagento.MadisonIslandTests@385ef531]" started-at="2021-10-25T10:15:39 EEST" name="I_can_recover_forgotten_password" finished-at="2021-10-25T10:15:41 EEST" depends-on-methods="org.fasttrackit.tauwebshopmagento.MadisonIslandTests.I_can_logout" duration-ms="2217" status="PASS">
          <reporter-output>
          </reporter-output>
        </test-method> <!-- I_can_recover_forgotten_password -->
        <test-method is-config="true" signature="setUp()[pri:0, instance:org.fasttrackit.tauwebshopmagento.MadisonIslandTests@385ef531]" started-at="2021-10-25T10:15:41 EEST" name="setUp" finished-at="2021-10-25T10:15:42 EEST" duration-ms="469" status="PASS">
          <reporter-output>
          </reporter-output>
        </test-method> <!-- setUp -->
        <test-method signature="I_can_remove_1_item_out_of_2_from_cart()[pri:0, instance:org.fasttrackit.tauwebshopmagento.MadisonIslandTests@385ef531]" started-at="2021-10-25T10:15:42 EEST" name="I_can_remove_1_item_out_of_2_from_cart" finished-at="2021-10-25T10:15:55 EEST" duration-ms="13854" status="PASS">
          <reporter-output>
          </reporter-output>
        </test-method> <!-- I_can_remove_1_item_out_of_2_from_cart -->
        <test-method is-config="true" signature="setUp()[pri:0, instance:org.fasttrackit.tauwebshopmagento.MadisonIslandTests@385ef531]" started-at="2021-10-25T10:15:55 EEST" name="setUp" finished-at="2021-10-25T10:15:56 EEST" duration-ms="529" status="PASS">
          <reporter-output>
          </reporter-output>
        </test-method> <!-- setUp -->
        <test-method signature="I_can_use_the_search_function()[pri:0, instance:org.fasttrackit.tauwebshopmagento.MadisonIslandTests@385ef531]" started-at="2021-10-25T10:15:56 EEST" name="I_can_use_the_search_function" finished-at="2021-10-25T10:15:58 EEST" duration-ms="1617" status="PASS">
          <reporter-output>
          </reporter-output>
        </test-method> <!-- I_can_use_the_search_function -->
        <test-method is-config="true" signature="setUp()[pri:0, instance:org.fasttrackit.tauwebshopmagento.MadisonIslandTests@385ef531]" started-at="2021-10-25T10:15:58 EEST" name="setUp" finished-at="2021-10-25T10:15:58 EEST" duration-ms="573" status="PASS">
          <reporter-output>
          </reporter-output>
        </test-method> <!-- setUp -->
        <test-method signature="I_cant_login_with_wrong_credentials()[pri:0, instance:org.fasttrackit.tauwebshopmagento.MadisonIslandTests@385ef531]" started-at="2021-10-25T10:15:58 EEST" name="I_cant_login_with_wrong_credentials" finished-at="2021-10-25T10:16:00 EEST" depends-on-methods="org.fasttrackit.tauwebshopmagento.MadisonIslandTests.I_can_logout" duration-ms="1778" status="PASS">
          <reporter-output>
          </reporter-output>
        </test-method> <!-- I_cant_login_with_wrong_credentials -->
        <test-method is-config="true" signature="setUp()[pri:0, instance:org.fasttrackit.tauwebshopmagento.MadisonIslandTests@385ef531]" started-at="2021-10-25T10:16:00 EEST" name="setUp" finished-at="2021-10-25T10:16:00 EEST" duration-ms="421" status="PASS">
          <reporter-output>
          </reporter-output>
        </test-method> <!-- setUp -->
        <test-method signature="I_cant_login_without_credentials()[pri:0, instance:org.fasttrackit.tauwebshopmagento.MadisonIslandTests@385ef531]" started-at="2021-10-25T10:16:00 EEST" name="I_cant_login_without_credentials" finished-at="2021-10-25T10:16:01 EEST" depends-on-methods="org.fasttrackit.tauwebshopmagento.MadisonIslandTests.I_can_logout" duration-ms="830" status="PASS">
          <reporter-output>
          </reporter-output>
        </test-method> <!-- I_cant_login_without_credentials -->
        <test-method is-config="true" signature="setUp()[pri:0, instance:org.fasttrackit.tauwebshopmagento.MadisonIslandTests@385ef531]" started-at="2021-10-25T10:16:01 EEST" name="setUp" finished-at="2021-10-25T10:16:02 EEST" duration-ms="488" status="PASS">
          <reporter-output>
          </reporter-output>
        </test-method> <!-- setUp -->
        <test-method signature="I_expect_a_welcome_message()[pri:0, instance:org.fasttrackit.tauwebshopmagento.MadisonIslandTests@385ef531]" started-at="2021-10-25T10:16:02 EEST" name="I_expect_a_welcome_message" finished-at="2021-10-25T10:16:02 EEST" duration-ms="494" status="PASS">
          <reporter-output>
          </reporter-output>
        </test-method> <!-- I_expect_a_welcome_message -->
        <test-method is-config="true" signature="setUp()[pri:0, instance:org.fasttrackit.tauwebshopmagento.MadisonIslandTests@385ef531]" started-at="2021-10-25T10:16:02 EEST" name="setUp" finished-at="2021-10-25T10:16:03 EEST" duration-ms="429" status="PASS">
          <reporter-output>
          </reporter-output>
        </test-method> <!-- setUp -->
        <test-method signature="homepage_logo_is_visible()[pri:0, instance:org.fasttrackit.tauwebshopmagento.MadisonIslandTests@385ef531]" started-at="2021-10-25T10:16:03 EEST" name="homepage_logo_is_visible" finished-at="2021-10-25T10:16:04 EEST" duration-ms="968" status="PASS">
          <reporter-output>
          </reporter-output>
        </test-method> <!-- homepage_logo_is_visible -->
        <test-method is-config="true" signature="setUp()[pri:0, instance:org.fasttrackit.tauwebshopmagento.MadisonIslandTests@385ef531]" started-at="2021-10-25T10:16:04 EEST" name="setUp" finished-at="2021-10-25T10:16:04 EEST" duration-ms="460" status="PASS">
          <reporter-output>
          </reporter-output>
        </test-method> <!-- setUp -->
        <test-method signature="homepage_should_be_translated_to_french()[pri:0, instance:org.fasttrackit.tauwebshopmagento.MadisonIslandTests@385ef531]" started-at="2021-10-25T10:16:04 EEST" name="homepage_should_be_translated_to_french" finished-at="2021-10-25T10:16:09 EEST" duration-ms="4736" status="FAIL">
          <exception class="com.codeborne.selenide.ex.ElementShould">
            <message>
              <![CDATA[Element should have exact text 'Bonjour' {p.welcome-msg}
Element: '<p class="welcome-msg">WELCOME</p>'
Screenshot: file:/C:/Users/Silvia/Desktop/Proiect%20final/tau-webshop-magento/build/reports/tests/1635146168946.3.png
Page source: file:/C:/Users/Silvia/Desktop/Proiect%20final/tau-webshop-magento/build/reports/tests/1635146168946.3.html
Timeout: 4 s.]]>
            </message>
            <full-stacktrace>
              <![CDATA[Element should have exact text 'Bonjour' {p.welcome-msg}
Element: '<p class="welcome-msg">WELCOME</p>'
Screenshot: file:/C:/Users/Silvia/Desktop/Proiect%20final/tau-webshop-magento/build/reports/tests/1635146168946.3.png
Page source: file:/C:/Users/Silvia/Desktop/Proiect%20final/tau-webshop-magento/build/reports/tests/1635146168946.3.html
Timeout: 4 s.
at com.codeborne.selenide.impl.WebElementSource.checkCondition(WebElementSource.java:121)
at com.codeborne.selenide.commands.Should.execute(Should.java:30)
at com.codeborne.selenide.commands.Should.execute(Should.java:14)
at com.codeborne.selenide.commands.Commands.execute(Commands.java:155)
at com.codeborne.selenide.impl.SelenideElementProxy.dispatchAndRetry(SelenideElementProxy.java:133)
at com.codeborne.selenide.impl.SelenideElementProxy.invoke(SelenideElementProxy.java:85)
at jdk.proxy2/jdk.proxy2.$Proxy7.shouldHave(Unknown Source)
at main.MadisonIslandPage.verifyWelcomeMessageByText(MadisonIslandPage.java:230)
at org.fasttrackit.tauwebshopmagento.MadisonIslandTests.homepage_should_be_translated_to_french(MadisonIslandTests.java:45)
at java.base/jdk.internal.reflect.NativeMethodAccessorImpl.invoke0(Native Method)
at java.base/jdk.internal.reflect.NativeMethodAccessorImpl.invoke(NativeMethodAccessorImpl.java:78)
at java.base/jdk.internal.reflect.DelegatingMethodAccessorImpl.invoke(DelegatingMethodAccessorImpl.java:43)
at java.base/java.lang.reflect.Method.invoke(Method.java:567)
at org.testng.internal.MethodInvocationHelper.invokeMethod(MethodInvocationHelper.java:133)
at org.testng.internal.TestInvoker.invokeMethod(TestInvoker.java:598)
at org.testng.internal.TestInvoker.invokeTestMethod(TestInvoker.java:173)
at org.testng.internal.MethodRunner.runInSequence(MethodRunner.java:46)
at org.testng.internal.TestInvoker$MethodInvocationAgent.invoke(TestInvoker.java:824)
at org.testng.internal.TestInvoker.invokeTestMethods(TestInvoker.java:146)
at org.testng.internal.TestMethodWorker.invokeTestMethods(TestMethodWorker.java:146)
at org.testng.internal.TestMethodWorker.run(TestMethodWorker.java:128)
at java.base/java.util.ArrayList.forEach(ArrayList.java:1511)
at org.testng.TestRunner.privateRun(TestRunner.java:794)
at org.testng.TestRunner.run(TestRunner.java:596)
at org.testng.SuiteRunner.runTest(SuiteRunner.java:377)
at org.testng.SuiteRunner.runSequentially(SuiteRunner.java:371)
at org.testng.SuiteRunner.privateRun(SuiteRunner.java:332)
at org.testng.SuiteRunner.run(SuiteRunner.java:276)
at org.testng.SuiteRunnerWorker.runSuite(SuiteRunnerWorker.java:53)
at org.testng.SuiteRunnerWorker.run(SuiteRunnerWorker.java:96)
at org.testng.TestNG.runSuitesSequentially(TestNG.java:1212)
at org.testng.TestNG.runSuitesLocally(TestNG.java:1134)
at org.testng.TestNG.runSuites(TestNG.java:1063)
at org.testng.TestNG.run(TestNG.java:1031)
at org.apache.maven.surefire.testng.TestNGExecutor.run(TestNGExecutor.java:135)
at org.apache.maven.surefire.testng.TestNGDirectoryTestSuite.executeMulti(TestNGDirectoryTestSuite.java:193)
at org.apache.maven.surefire.testng.TestNGDirectoryTestSuite.execute(TestNGDirectoryTestSuite.java:94)
at org.apache.maven.surefire.testng.TestNGProvider.invoke(TestNGProvider.java:146)
at org.apache.maven.surefire.booter.ForkedBooter.invokeProviderInSameClassLoader(ForkedBooter.java:384)
at org.apache.maven.surefire.booter.ForkedBooter.runSuitesInProcess(ForkedBooter.java:345)
at org.apache.maven.surefire.booter.ForkedBooter.execute(ForkedBooter.java:126)
at org.apache.maven.surefire.booter.ForkedBooter.main(ForkedBooter.java:418)
]]>
            </full-stacktrace>
          </exception> <!-- com.codeborne.selenide.ex.ElementShould -->
          <reporter-output>
          </reporter-output>
        </test-method> <!-- homepage_should_be_translated_to_french -->
        <test-method is-config="true" signature="setUp()[pri:0, instance:org.fasttrackit.tauwebshopmagento.MadisonIslandTests@385ef531]" started-at="2021-10-25T10:16:09 EEST" name="setUp" finished-at="2021-10-25T10:16:09 EEST" duration-ms="554" status="PASS">
          <reporter-output>
          </reporter-output>
        </test-method> <!-- setUp -->
        <test-method signature="subtotal_is_correct()[pri:0, instance:org.fasttrackit.tauwebshopmagento.MadisonIslandTests@385ef531]" started-at="2021-10-25T10:16:09 EEST" name="subtotal_is_correct" finished-at="2021-10-25T10:16:16 EEST" duration-ms="6230" status="PASS">
          <reporter-output>
          </reporter-output>
        </test-method> <!-- subtotal_is_correct -->
        <test-method is-config="true" signature="setUp()[pri:0, instance:org.fasttrackit.tauwebshopmagento.MadisonIslandTests@385ef531]" started-at="2021-10-25T10:16:16 EEST" name="setUp" finished-at="2021-10-25T10:16:16 EEST" duration-ms="479" status="PASS">
          <reporter-output>
          </reporter-output>
        </test-method> <!-- setUp -->
        <test-method signature="test()[pri:0, instance:org.fasttrackit.tauwebshopmagento.MadisonIslandTests@385ef531]" started-at="2021-10-25T10:16:16 EEST" name="test" finished-at="2021-10-25T10:16:22 EEST" duration-ms="6026" status="PASS">
          <reporter-output>
          </reporter-output>
        </test-method> <!-- test -->
        <test-method is-config="true" signature="setUp()[pri:0, instance:org.fasttrackit.tauwebshopmagento.MadisonIslandTests@385ef531]" started-at="2021-10-25T10:16:22 EEST" name="setUp" finished-at="2021-10-25T10:16:23 EEST" duration-ms="428" status="PASS">
          <reporter-output>
          </reporter-output>
        </test-method> <!-- setUp -->
        <test-method signature="when_logged_in_welcome_message_contains_users_full_name()[pri:0, instance:org.fasttrackit.tauwebshopmagento.MadisonIslandTests@385ef531]" started-at="2021-10-25T10:16:23 EEST" name="when_logged_in_welcome_message_contains_users_full_name" finished-at="2021-10-25T10:16:27 EEST" depends-on-methods="org.fasttrackit.tauwebshopmagento.MadisonIslandTests.I_can_login" duration-ms="4663" status="FAIL">
          <exception class="com.codeborne.selenide.ex.ElementShould">
            <message>
              <![CDATA[Element should have exact text 'Welcome, Silvia Sabou!' {p.welcome-msg}
Element: '<p class="welcome-msg">WELCOME</p>'
Screenshot: file:/C:/Users/Silvia/Desktop/Proiect%20final/tau-webshop-magento/build/reports/tests/1635146187220.4.png
Page source: file:/C:/Users/Silvia/Desktop/Proiect%20final/tau-webshop-magento/build/reports/tests/1635146187220.4.html
Timeout: 4 s.]]>
            </message>
            <full-stacktrace>
              <![CDATA[Element should have exact text 'Welcome, Silvia Sabou!' {p.welcome-msg}
Element: '<p class="welcome-msg">WELCOME</p>'
Screenshot: file:/C:/Users/Silvia/Desktop/Proiect%20final/tau-webshop-magento/build/reports/tests/1635146187220.4.png
Page source: file:/C:/Users/Silvia/Desktop/Proiect%20final/tau-webshop-magento/build/reports/tests/1635146187220.4.html
Timeout: 4 s.
at com.codeborne.selenide.impl.WebElementSource.checkCondition(WebElementSource.java:121)
at com.codeborne.selenide.commands.Should.execute(Should.java:30)
at com.codeborne.selenide.commands.Should.execute(Should.java:14)
at com.codeborne.selenide.commands.Commands.execute(Commands.java:155)
at com.codeborne.selenide.impl.SelenideElementProxy.dispatchAndRetry(SelenideElementProxy.java:133)
at com.codeborne.selenide.impl.SelenideElementProxy.invoke(SelenideElementProxy.java:85)
at jdk.proxy2/jdk.proxy2.$Proxy7.shouldHave(Unknown Source)
at main.MadisonIslandPage.verifyWelcomeMessageByText(MadisonIslandPage.java:230)
at org.fasttrackit.tauwebshopmagento.MadisonIslandTests.when_logged_in_welcome_message_contains_users_full_name(MadisonIslandTests.java:113)
at java.base/jdk.internal.reflect.NativeMethodAccessorImpl.invoke0(Native Method)
at java.base/jdk.internal.reflect.NativeMethodAccessorImpl.invoke(NativeMethodAccessorImpl.java:78)
at java.base/jdk.internal.reflect.DelegatingMethodAccessorImpl.invoke(DelegatingMethodAccessorImpl.java:43)
at java.base/java.lang.reflect.Method.invoke(Method.java:567)
at org.testng.internal.MethodInvocationHelper.invokeMethod(MethodInvocationHelper.java:133)
at org.testng.internal.TestInvoker.invokeMethod(TestInvoker.java:598)
at org.testng.internal.TestInvoker.invokeTestMethod(TestInvoker.java:173)
at org.testng.internal.MethodRunner.runInSequence(MethodRunner.java:46)
at org.testng.internal.TestInvoker$MethodInvocationAgent.invoke(TestInvoker.java:824)
at org.testng.internal.TestInvoker.invokeTestMethods(TestInvoker.java:146)
at org.testng.internal.TestMethodWorker.invokeTestMethods(TestMethodWorker.java:146)
at org.testng.internal.TestMethodWorker.run(TestMethodWorker.java:128)
at java.base/java.util.ArrayList.forEach(ArrayList.java:1511)
at org.testng.TestRunner.privateRun(TestRunner.java:794)
at org.testng.TestRunner.run(TestRunner.java:596)
at org.testng.SuiteRunner.runTest(SuiteRunner.java:377)
at org.testng.SuiteRunner.runSequentially(SuiteRunner.java:371)
at org.testng.SuiteRunner.privateRun(SuiteRunner.java:332)
at org.testng.SuiteRunner.run(SuiteRunner.java:276)
at org.testng.SuiteRunnerWorker.runSuite(SuiteRunnerWorker.java:53)
at org.testng.SuiteRunnerWorker.run(SuiteRunnerWorker.java:96)
at org.testng.TestNG.runSuitesSequentially(TestNG.java:1212)
at org.testng.TestNG.runSuitesLocally(TestNG.java:1134)
at org.testng.TestNG.runSuites(TestNG.java:1063)
at org.testng.TestNG.run(TestNG.java:1031)
at org.apache.maven.surefire.testng.TestNGExecutor.run(TestNGExecutor.java:135)
at org.apache.maven.surefire.testng.TestNGDirectoryTestSuite.executeMulti(TestNGDirectoryTestSuite.java:193)
at org.apache.maven.surefire.testng.TestNGDirectoryTestSuite.execute(TestNGDirectoryTestSuite.java:94)
at org.apache.maven.surefire.testng.TestNGProvider.invoke(TestNGProvider.java:146)
at org.apache.maven.surefire.booter.ForkedBooter.invokeProviderInSameClassLoader(ForkedBooter.java:384)
at org.apache.maven.surefire.booter.ForkedBooter.runSuitesInProcess(ForkedBooter.java:345)
at org.apache.maven.surefire.booter.ForkedBooter.execute(ForkedBooter.java:126)
at org.apache.maven.surefire.booter.ForkedBooter.main(ForkedBooter.java:418)
]]>
            </full-stacktrace>
          </exception> <!-- com.codeborne.selenide.ex.ElementShould -->
          <reporter-output>
          </reporter-output>
        </test-method> <!-- when_logged_in_welcome_message_contains_users_full_name -->
      </class> <!-- org.fasttrackit.tauwebshopmagento.MadisonIslandTests -->
      <class name="org.fasttrackit.tauwebshopmagento.HomepageTests">
        <test-method is-config="true" signature="setUpAll()[pri:0, instance:org.fasttrackit.tauwebshopmagento.HomepageTests@7159139f]" started-at="2021-10-25T10:13:06 EEST" name="setUpAll" finished-at="2021-10-25T10:13:06 EEST" duration-ms="31" status="PASS">
          <reporter-output>
          </reporter-output>
        </test-method> <!-- setUpAll -->
        <test-method is-config="true" signature="setUp()[pri:0, instance:org.fasttrackit.tauwebshopmagento.HomepageTests@7159139f]" started-at="2021-10-25T10:13:06 EEST" name="setUp" finished-at="2021-10-25T10:13:10 EEST" duration-ms="3731" status="PASS">
          <reporter-output>
          </reporter-output>
        </test-method> <!-- setUp -->
        <test-method signature="I_can_add_1_item_to_cart()[pri:0, instance:org.fasttrackit.tauwebshopmagento.HomepageTests@7159139f]" started-at="2021-10-25T10:13:10 EEST" name="I_can_add_1_item_to_cart" finished-at="2021-10-25T10:13:17 EEST" duration-ms="6624" status="PASS">
          <reporter-output>
          </reporter-output>
        </test-method> <!-- I_can_add_1_item_to_cart -->
        <test-method is-config="true" signature="setUp()[pri:0, instance:org.fasttrackit.tauwebshopmagento.HomepageTests@7159139f]" started-at="2021-10-25T10:13:17 EEST" name="setUp" finished-at="2021-10-25T10:13:17 EEST" duration-ms="559" status="PASS">
          <reporter-output>
          </reporter-output>
        </test-method> <!-- setUp -->
        <test-method signature="I_can_add_23_from_the_same_item_to_cart()[pri:0, instance:org.fasttrackit.tauwebshopmagento.HomepageTests@7159139f]" started-at="2021-10-25T10:13:17 EEST" name="I_can_add_23_from_the_same_item_to_cart" finished-at="2021-10-25T10:13:24 EEST" duration-ms="6304" status="PASS">
          <reporter-output>
          </reporter-output>
        </test-method> <!-- I_can_add_23_from_the_same_item_to_cart -->
        <test-method is-config="true" signature="setUp()[pri:0, instance:org.fasttrackit.tauwebshopmagento.HomepageTests@7159139f]" started-at="2021-10-25T10:13:24 EEST" name="setUp" finished-at="2021-10-25T10:13:24 EEST" duration-ms="567" status="PASS">
          <reporter-output>
          </reporter-output>
        </test-method> <!-- setUp -->
        <test-method signature="I_can_add_2_different_products_to_cart()[pri:0, instance:org.fasttrackit.tauwebshopmagento.HomepageTests@7159139f]" started-at="2021-10-25T10:13:24 EEST" name="I_can_add_2_different_products_to_cart" finished-at="2021-10-25T10:13:36 EEST" duration-ms="11570" status="PASS">
          <reporter-output>
          </reporter-output>
        </test-method> <!-- I_can_add_2_different_products_to_cart -->
        <test-method is-config="true" signature="setUp()[pri:0, instance:org.fasttrackit.tauwebshopmagento.HomepageTests@7159139f]" started-at="2021-10-25T10:13:36 EEST" name="setUp" finished-at="2021-10-25T10:13:36 EEST" duration-ms="550" status="PASS">
          <reporter-output>
          </reporter-output>
        </test-method> <!-- setUp -->
        <test-method signature="I_can_create_an_account()[pri:0, instance:org.fasttrackit.tauwebshopmagento.HomepageTests@7159139f]" started-at="2021-10-25T10:13:36 EEST" name="I_can_create_an_account" finished-at="2021-10-25T10:13:39 EEST" duration-ms="2669" status="PASS">
          <reporter-output>
          </reporter-output>
        </test-method> <!-- I_can_create_an_account -->
        <test-method is-config="true" signature="setUp()[pri:0, instance:org.fasttrackit.tauwebshopmagento.HomepageTests@7159139f]" started-at="2021-10-25T10:13:39 EEST" name="setUp" finished-at="2021-10-25T10:13:40 EEST" duration-ms="547" status="PASS">
          <reporter-output>
          </reporter-output>
        </test-method> <!-- setUp -->
        <test-method signature="I_can_login()[pri:0, instance:org.fasttrackit.tauwebshopmagento.HomepageTests@7159139f]" started-at="2021-10-25T10:13:40 EEST" name="I_can_login" finished-at="2021-10-25T10:13:44 EEST" duration-ms="4599" status="PASS">
          <reporter-output>
          </reporter-output>
        </test-method> <!-- I_can_login -->
        <test-method is-config="true" signature="setUp()[pri:0, instance:org.fasttrackit.tauwebshopmagento.HomepageTests@7159139f]" started-at="2021-10-25T10:13:44 EEST" name="setUp" finished-at="2021-10-25T10:13:45 EEST" duration-ms="1168" status="PASS">
          <reporter-output>
          </reporter-output>
        </test-method> <!-- setUp -->
        <test-method signature="I_can_add_1_item_to_wishlist()[pri:0, instance:org.fasttrackit.tauwebshopmagento.HomepageTests@7159139f]" started-at="2021-10-25T10:13:45 EEST" name="I_can_add_1_item_to_wishlist" finished-at="2021-10-25T10:13:50 EEST" depends-on-methods="org.fasttrackit.tauwebshopmagento.HomepageTests.I_can_login" duration-ms="5124" status="PASS">
          <reporter-output>
          </reporter-output>
        </test-method> <!-- I_can_add_1_item_to_wishlist -->
        <test-method is-config="true" signature="setUp()[pri:0, instance:org.fasttrackit.tauwebshopmagento.HomepageTests@7159139f]" started-at="2021-10-25T10:13:50 EEST" name="setUp" finished-at="2021-10-25T10:13:52 EEST" duration-ms="1158" status="PASS">
          <reporter-output>
          </reporter-output>
        </test-method> <!-- setUp -->
        <test-method signature="I_can_logout()[pri:0, instance:org.fasttrackit.tauwebshopmagento.HomepageTests@7159139f]" started-at="2021-10-25T10:13:52 EEST" name="I_can_logout" finished-at="2021-10-25T10:13:53 EEST" duration-ms="908" status="PASS">
          <reporter-output>
          </reporter-output>
        </test-method> <!-- I_can_logout -->
        <test-method is-config="true" signature="setUp()[pri:0, instance:org.fasttrackit.tauwebshopmagento.HomepageTests@7159139f]" started-at="2021-10-25T10:13:53 EEST" name="setUp" finished-at="2021-10-25T10:13:53 EEST" duration-ms="426" status="PASS">
          <reporter-output>
          </reporter-output>
        </test-method> <!-- setUp -->
        <test-method signature="I_can_open_products_details()[pri:0, instance:org.fasttrackit.tauwebshopmagento.HomepageTests@7159139f]" started-at="2021-10-25T10:13:53 EEST" name="I_can_open_products_details" finished-at="2021-10-25T10:13:56 EEST" duration-ms="2786" status="PASS">
          <reporter-output>
          </reporter-output>
        </test-method> <!-- I_can_open_products_details -->
        <test-method is-config="true" signature="setUp()[pri:0, instance:org.fasttrackit.tauwebshopmagento.HomepageTests@7159139f]" started-at="2021-10-25T10:13:56 EEST" name="setUp" finished-at="2021-10-25T10:13:56 EEST" duration-ms="513" status="PASS">
          <reporter-output>
          </reporter-output>
        </test-method> <!-- setUp -->
        <test-method signature="I_can_open_register_page()[pri:0, instance:org.fasttrackit.tauwebshopmagento.HomepageTests@7159139f]" started-at="2021-10-25T10:13:56 EEST" name="I_can_open_register_page" finished-at="2021-10-25T10:13:58 EEST" duration-ms="1379" status="PASS">
          <reporter-output>
          </reporter-output>
        </test-method> <!-- I_can_open_register_page -->
        <test-method is-config="true" signature="setUp()[pri:0, instance:org.fasttrackit.tauwebshopmagento.HomepageTests@7159139f]" started-at="2021-10-25T10:13:58 EEST" name="setUp" finished-at="2021-10-25T10:13:58 EEST" duration-ms="457" status="PASS">
          <reporter-output>
          </reporter-output>
        </test-method> <!-- setUp -->
        <test-method signature="I_can_recover_forgotten_password()[pri:0, instance:org.fasttrackit.tauwebshopmagento.HomepageTests@7159139f]" started-at="2021-10-25T10:13:58 EEST" name="I_can_recover_forgotten_password" finished-at="2021-10-25T10:14:04 EEST" depends-on-methods="org.fasttrackit.tauwebshopmagento.HomepageTests.I_can_logout" duration-ms="6195" status="FAIL">
          <exception class="com.codeborne.selenide.ex.ElementNotFound">
            <message>
              <![CDATA[Element not found {li.success-msg}
Expected: visible
Screenshot: file:/C:/Users/Silvia/Desktop/Proiect%20final/tau-webshop-magento/build/reports/tests/1635146044653.0.png
Page source: file:/C:/Users/Silvia/Desktop/Proiect%20final/tau-webshop-magento/build/reports/tests/1635146044653.0.html
Timeout: 4 s.
Caused by: NoSuchElementException: no such element: Unable to locate element: {"method":"css selector","selector":"li.success-msg"}]]>
            </message>
            <full-stacktrace>
              <![CDATA[Element not found {li.success-msg}
Expected: visible
Screenshot: file:/C:/Users/Silvia/Desktop/Proiect%20final/tau-webshop-magento/build/reports/tests/1635146044653.0.png
Page source: file:/C:/Users/Silvia/Desktop/Proiect%20final/tau-webshop-magento/build/reports/tests/1635146044653.0.html
Timeout: 4 s.
Caused by: NoSuchElementException: no such element: Unable to locate element: {"method":"css selector","selector":"li.success-msg"}
at com.codeborne.selenide.impl.WebElementSource.createElementNotFoundError(WebElementSource.java:83)
at com.codeborne.selenide.impl.ElementFinder.createElementNotFoundError(ElementFinder.java:122)
at com.codeborne.selenide.impl.WebElementSource.checkCondition(WebElementSource.java:114)
at com.codeborne.selenide.commands.Should.execute(Should.java:30)
at com.codeborne.selenide.commands.Should.execute(Should.java:14)
at com.codeborne.selenide.commands.Commands.execute(Commands.java:155)
at com.codeborne.selenide.impl.SelenideElementProxy.dispatchAndRetry(SelenideElementProxy.java:133)
at com.codeborne.selenide.impl.SelenideElementProxy.invoke(SelenideElementProxy.java:85)
at jdk.proxy2/jdk.proxy2.$Proxy7.shouldBe(Unknown Source)
at org.fasttrackit.tauwebshopmagento.HomepageTests.I_can_recover_forgotten_password(HomepageTests.java:162)
at java.base/jdk.internal.reflect.NativeMethodAccessorImpl.invoke0(Native Method)
at java.base/jdk.internal.reflect.NativeMethodAccessorImpl.invoke(NativeMethodAccessorImpl.java:78)
at java.base/jdk.internal.reflect.DelegatingMethodAccessorImpl.invoke(DelegatingMethodAccessorImpl.java:43)
at java.base/java.lang.reflect.Method.invoke(Method.java:567)
at org.testng.internal.MethodInvocationHelper.invokeMethod(MethodInvocationHelper.java:133)
at org.testng.internal.TestInvoker.invokeMethod(TestInvoker.java:598)
at org.testng.internal.TestInvoker.invokeTestMethod(TestInvoker.java:173)
at org.testng.internal.MethodRunner.runInSequence(MethodRunner.java:46)
at org.testng.internal.TestInvoker$MethodInvocationAgent.invoke(TestInvoker.java:824)
at org.testng.internal.TestInvoker.invokeTestMethods(TestInvoker.java:146)
at org.testng.internal.TestMethodWorker.invokeTestMethods(TestMethodWorker.java:146)
at org.testng.internal.TestMethodWorker.run(TestMethodWorker.java:128)
at java.base/java.util.ArrayList.forEach(ArrayList.java:1511)
at org.testng.TestRunner.privateRun(TestRunner.java:794)
at org.testng.TestRunner.run(TestRunner.java:596)
at org.testng.SuiteRunner.runTest(SuiteRunner.java:377)
at org.testng.SuiteRunner.runSequentially(SuiteRunner.java:371)
at org.testng.SuiteRunner.privateRun(SuiteRunner.java:332)
at org.testng.SuiteRunner.run(SuiteRunner.java:276)
at org.testng.SuiteRunnerWorker.runSuite(SuiteRunnerWorker.java:53)
at org.testng.SuiteRunnerWorker.run(SuiteRunnerWorker.java:96)
at org.testng.TestNG.runSuitesSequentially(TestNG.java:1212)
at org.testng.TestNG.runSuitesLocally(TestNG.java:1134)
at org.testng.TestNG.runSuites(TestNG.java:1063)
at org.testng.TestNG.run(TestNG.java:1031)
at org.apache.maven.surefire.testng.TestNGExecutor.run(TestNGExecutor.java:135)
at org.apache.maven.surefire.testng.TestNGDirectoryTestSuite.executeMulti(TestNGDirectoryTestSuite.java:193)
at org.apache.maven.surefire.testng.TestNGDirectoryTestSuite.execute(TestNGDirectoryTestSuite.java:94)
at org.apache.maven.surefire.testng.TestNGProvider.invoke(TestNGProvider.java:146)
at org.apache.maven.surefire.booter.ForkedBooter.invokeProviderInSameClassLoader(ForkedBooter.java:384)
at org.apache.maven.surefire.booter.ForkedBooter.runSuitesInProcess(ForkedBooter.java:345)
at org.apache.maven.surefire.booter.ForkedBooter.execute(ForkedBooter.java:126)
at org.apache.maven.surefire.booter.ForkedBooter.main(ForkedBooter.java:418)
Caused by: org.openqa.selenium.NoSuchElementException: no such element: Unable to locate element: {"method":"css selector","selector":"li.success-msg"}
  (Session info: chrome=94.0.4606.81)
For documentation on this error, please visit: https://www.seleniumhq.org/exceptions/no_such_element.html
Build info: version: '3.141.59', revision: 'e82be7d358', time: '2018-11-14T08:17:03'
System info: host: 'DESKTOP-MO6S8JF', ip: '192.168.1.103', os.name: 'Windows 10', os.arch: 'amd64', os.version: '10.0', java.version: '16.0.1'
Driver info: org.openqa.selenium.chrome.ChromeDriver
Capabilities {acceptInsecureCerts: true, browserName: chrome, browserVersion: 94.0.4606.81, chrome: {chromedriverVersion: 94.0.4606.61 (418b78f5838ed..., userDataDir: C:\Users\Silvia\AppData\Loc...}, goog:chromeOptions: {debuggerAddress: localhost:65341}, javascriptEnabled: true, networkConnectionEnabled: false, pageLoadStrategy: normal, platform: WINDOWS, platformName: WINDOWS, proxy: Proxy(), setWindowRect: true, strictFileInteractability: false, timeouts: {implicit: 0, pageLoad: 300000, script: 30000}, unhandledPromptBehavior: dismiss and notify, webauthn:extension:credBlob: true, webauthn:extension:largeBlob: true, webauthn:virtualAuthenticators: true}
Session ID: fba8acda0aaca31315a0ee03cd2c6663
*** Element info: {Using=css selector, value=li.success-msg}
at jdk.internal.reflect.GeneratedConstructorAccessor14.newInstance(Unknown Source)
at java.base/jdk.internal.reflect.DelegatingConstructorAccessorImpl.newInstance(DelegatingConstructorAccessorImpl.java:45)
at java.base/java.lang.reflect.Constructor.newInstanceWithCaller(Constructor.java:499)
at java.base/java.lang.reflect.Constructor.newInstance(Constructor.java:480)
at org.openqa.selenium.remote.http.W3CHttpResponseCodec.createException(W3CHttpResponseCodec.java:187)
at org.openqa.selenium.remote.http.W3CHttpResponseCodec.decode(W3CHttpResponseCodec.java:122)
at org.openqa.selenium.remote.http.W3CHttpResponseCodec.decode(W3CHttpResponseCodec.java:49)
at org.openqa.selenium.remote.HttpCommandExecutor.execute(HttpCommandExecutor.java:158)
at org.openqa.selenium.remote.service.DriverCommandExecutor.execute(DriverCommandExecutor.java:83)
at org.openqa.selenium.remote.RemoteWebDriver.execute(RemoteWebDriver.java:552)
at org.openqa.selenium.remote.RemoteWebDriver.findElement(RemoteWebDriver.java:323)
at org.openqa.selenium.remote.RemoteWebDriver.findElementByCssSelector(RemoteWebDriver.java:420)
at org.openqa.selenium.By$ByCssSelector.findElement(By.java:431)
at org.openqa.selenium.remote.RemoteWebDriver.findElement(RemoteWebDriver.java:315)
at com.codeborne.selenide.impl.WebElementSelector.findElement(WebElementSelector.java:70)
at com.codeborne.selenide.impl.WebElementSelector.findElement(WebElementSelector.java:44)
at com.codeborne.selenide.impl.WebElementSelector.findElement(WebElementSelector.java:33)
at com.codeborne.selenide.impl.ElementFinder.getWebElement(ElementFinder.java:102)
at com.codeborne.selenide.impl.WebElementSource.checkCondition(WebElementSource.java:99)
... 40 more
]]>
            </full-stacktrace>
          </exception> <!-- com.codeborne.selenide.ex.ElementNotFound -->
          <reporter-output>
          </reporter-output>
        </test-method> <!-- I_can_recover_forgotten_password -->
        <test-method is-config="true" signature="setUp()[pri:0, instance:org.fasttrackit.tauwebshopmagento.HomepageTests@7159139f]" started-at="2021-10-25T10:14:04 EEST" name="setUp" finished-at="2021-10-25T10:14:05 EEST" duration-ms="526" status="PASS">
          <reporter-output>
          </reporter-output>
        </test-method> <!-- setUp -->
        <test-method signature="I_can_use_the_search_function()[pri:0, instance:org.fasttrackit.tauwebshopmagento.HomepageTests@7159139f]" started-at="2021-10-25T10:14:05 EEST" name="I_can_use_the_search_function" finished-at="2021-10-25T10:14:06 EEST" duration-ms="1516" status="PASS">
          <reporter-output>
          </reporter-output>
        </test-method> <!-- I_can_use_the_search_function -->
        <test-method is-config="true" signature="setUp()[pri:0, instance:org.fasttrackit.tauwebshopmagento.HomepageTests@7159139f]" started-at="2021-10-25T10:14:06 EEST" name="setUp" finished-at="2021-10-25T10:14:07 EEST" duration-ms="484" status="PASS">
          <reporter-output>
          </reporter-output>
        </test-method> <!-- setUp -->
        <test-method signature="I_cant_login_with_wrong_credentials()[pri:0, instance:org.fasttrackit.tauwebshopmagento.HomepageTests@7159139f]" started-at="2021-10-25T10:14:07 EEST" name="I_cant_login_with_wrong_credentials" finished-at="2021-10-25T10:14:09 EEST" depends-on-methods="org.fasttrackit.tauwebshopmagento.HomepageTests.I_can_logout" duration-ms="1730" status="PASS">
          <reporter-output>
          </reporter-output>
        </test-method> <!-- I_cant_login_with_wrong_credentials -->
        <test-method is-config="true" signature="setUp()[pri:0, instance:org.fasttrackit.tauwebshopmagento.HomepageTests@7159139f]" started-at="2021-10-25T10:14:09 EEST" name="setUp" finished-at="2021-10-25T10:14:09 EEST" duration-ms="645" status="PASS">
          <reporter-output>
          </reporter-output>
        </test-method> <!-- setUp -->
        <test-method signature="I_cant_login_without_credentials()[pri:0, instance:org.fasttrackit.tauwebshopmagento.HomepageTests@7159139f]" started-at="2021-10-25T10:14:09 EEST" name="I_cant_login_without_credentials" finished-at="2021-10-25T10:14:10 EEST" depends-on-methods="org.fasttrackit.tauwebshopmagento.HomepageTests.I_can_logout" duration-ms="966" status="PASS">
          <reporter-output>
          </reporter-output>
        </test-method> <!-- I_cant_login_without_credentials -->
        <test-method is-config="true" signature="setUp()[pri:0, instance:org.fasttrackit.tauwebshopmagento.HomepageTests@7159139f]" started-at="2021-10-25T10:14:10 EEST" name="setUp" finished-at="2021-10-25T10:14:11 EEST" duration-ms="461" status="PASS">
          <reporter-output>
          </reporter-output>
        </test-method> <!-- setUp -->
        <test-method signature="I_expect_a_welcome_message()[pri:0, instance:org.fasttrackit.tauwebshopmagento.HomepageTests@7159139f]" started-at="2021-10-25T10:14:11 EEST" name="I_expect_a_welcome_message" finished-at="2021-10-25T10:14:11 EEST" duration-ms="485" status="PASS">
          <reporter-output>
          </reporter-output>
        </test-method> <!-- I_expect_a_welcome_message -->
        <test-method is-config="true" signature="setUp()[pri:0, instance:org.fasttrackit.tauwebshopmagento.HomepageTests@7159139f]" started-at="2021-10-25T10:14:11 EEST" name="setUp" finished-at="2021-10-25T10:14:12 EEST" duration-ms="458" status="PASS">
          <reporter-output>
          </reporter-output>
        </test-method> <!-- setUp -->
        <test-method signature="homepage_logo_is_visible()[pri:0, instance:org.fasttrackit.tauwebshopmagento.HomepageTests@7159139f]" started-at="2021-10-25T10:14:12 EEST" name="homepage_logo_is_visible" finished-at="2021-10-25T10:14:13 EEST" duration-ms="1026" status="PASS">
          <reporter-output>
          </reporter-output>
        </test-method> <!-- homepage_logo_is_visible -->
        <test-method is-config="true" signature="setUp()[pri:0, instance:org.fasttrackit.tauwebshopmagento.HomepageTests@7159139f]" started-at="2021-10-25T10:14:13 EEST" name="setUp" finished-at="2021-10-25T10:14:13 EEST" duration-ms="469" status="PASS">
          <reporter-output>
          </reporter-output>
        </test-method> <!-- setUp -->
        <test-method signature="homepage_should_be_translated_to_french()[pri:0, instance:org.fasttrackit.tauwebshopmagento.HomepageTests@7159139f]" started-at="2021-10-25T10:14:13 EEST" name="homepage_should_be_translated_to_french" finished-at="2021-10-25T10:14:18 EEST" duration-ms="5131" status="FAIL">
          <exception class="com.codeborne.selenide.ex.ElementShould">
            <message>
              <![CDATA[Element should have exact text 'Bonjour' {p.welcome-msg}
Element: '<p class="welcome-msg">WELCOME</p>'
Screenshot: file:/C:/Users/Silvia/Desktop/Proiect%20final/tau-webshop-magento/build/reports/tests/1635146058296.1.png
Page source: file:/C:/Users/Silvia/Desktop/Proiect%20final/tau-webshop-magento/build/reports/tests/1635146058296.1.html
Timeout: 4 s.]]>
            </message>
            <full-stacktrace>
              <![CDATA[Element should have exact text 'Bonjour' {p.welcome-msg}
Element: '<p class="welcome-msg">WELCOME</p>'
Screenshot: file:/C:/Users/Silvia/Desktop/Proiect%20final/tau-webshop-magento/build/reports/tests/1635146058296.1.png
Page source: file:/C:/Users/Silvia/Desktop/Proiect%20final/tau-webshop-magento/build/reports/tests/1635146058296.1.html
Timeout: 4 s.
at com.codeborne.selenide.impl.WebElementSource.checkCondition(WebElementSource.java:121)
at com.codeborne.selenide.commands.Should.execute(Should.java:30)
at com.codeborne.selenide.commands.Should.execute(Should.java:14)
at com.codeborne.selenide.commands.Commands.execute(Commands.java:155)
at com.codeborne.selenide.impl.SelenideElementProxy.dispatchAndRetry(SelenideElementProxy.java:133)
at com.codeborne.selenide.impl.SelenideElementProxy.invoke(SelenideElementProxy.java:85)
at jdk.proxy2/jdk.proxy2.$Proxy7.shouldHave(Unknown Source)
at main.MainPage.verifyWelcomeMessageByText(MainPage.java:244)
at org.fasttrackit.tauwebshopmagento.HomepageTests.homepage_should_be_translated_to_french(HomepageTests.java:45)
at java.base/jdk.internal.reflect.NativeMethodAccessorImpl.invoke0(Native Method)
at java.base/jdk.internal.reflect.NativeMethodAccessorImpl.invoke(NativeMethodAccessorImpl.java:78)
at java.base/jdk.internal.reflect.DelegatingMethodAccessorImpl.invoke(DelegatingMethodAccessorImpl.java:43)
at java.base/java.lang.reflect.Method.invoke(Method.java:567)
at org.testng.internal.MethodInvocationHelper.invokeMethod(MethodInvocationHelper.java:133)
at org.testng.internal.TestInvoker.invokeMethod(TestInvoker.java:598)
at org.testng.internal.TestInvoker.invokeTestMethod(TestInvoker.java:173)
at org.testng.internal.MethodRunner.runInSequence(MethodRunner.java:46)
at org.testng.internal.TestInvoker$MethodInvocationAgent.invoke(TestInvoker.java:824)
at org.testng.internal.TestInvoker.invokeTestMethods(TestInvoker.java:146)
at org.testng.internal.TestMethodWorker.invokeTestMethods(TestMethodWorker.java:146)
at org.testng.internal.TestMethodWorker.run(TestMethodWorker.java:128)
at java.base/java.util.ArrayList.forEach(ArrayList.java:1511)
at org.testng.TestRunner.privateRun(TestRunner.java:794)
at org.testng.TestRunner.run(TestRunner.java:596)
at org.testng.SuiteRunner.runTest(SuiteRunner.java:377)
at org.testng.SuiteRunner.runSequentially(SuiteRunner.java:371)
at org.testng.SuiteRunner.privateRun(SuiteRunner.java:332)
at org.testng.SuiteRunner.run(SuiteRunner.java:276)
at org.testng.SuiteRunnerWorker.runSuite(SuiteRunnerWorker.java:53)
at org.testng.SuiteRunnerWorker.run(SuiteRunnerWorker.java:96)
at org.testng.TestNG.runSuitesSequentially(TestNG.java:1212)
at org.testng.TestNG.runSuitesLocally(TestNG.java:1134)
at org.testng.TestNG.runSuites(TestNG.java:1063)
at org.testng.TestNG.run(TestNG.java:1031)
at org.apache.maven.surefire.testng.TestNGExecutor.run(TestNGExecutor.java:135)
at org.apache.maven.surefire.testng.TestNGDirectoryTestSuite.executeMulti(TestNGDirectoryTestSuite.java:193)
at org.apache.maven.surefire.testng.TestNGDirectoryTestSuite.execute(TestNGDirectoryTestSuite.java:94)
at org.apache.maven.surefire.testng.TestNGProvider.invoke(TestNGProvider.java:146)
at org.apache.maven.surefire.booter.ForkedBooter.invokeProviderInSameClassLoader(ForkedBooter.java:384)
at org.apache.maven.surefire.booter.ForkedBooter.runSuitesInProcess(ForkedBooter.java:345)
at org.apache.maven.surefire.booter.ForkedBooter.execute(ForkedBooter.java:126)
at org.apache.maven.surefire.booter.ForkedBooter.main(ForkedBooter.java:418)
]]>
            </full-stacktrace>
          </exception> <!-- com.codeborne.selenide.ex.ElementShould -->
          <reporter-output>
          </reporter-output>
        </test-method> <!-- homepage_should_be_translated_to_french -->
        <test-method is-config="true" signature="setUp()[pri:0, instance:org.fasttrackit.tauwebshopmagento.HomepageTests@7159139f]" started-at="2021-10-25T10:14:18 EEST" name="setUp" finished-at="2021-10-25T10:14:19 EEST" duration-ms="493" status="PASS">
          <reporter-output>
          </reporter-output>
        </test-method> <!-- setUp -->
        <test-method signature="subtotal_is_correct()[pri:0, instance:org.fasttrackit.tauwebshopmagento.HomepageTests@7159139f]" started-at="2021-10-25T10:14:19 EEST" name="subtotal_is_correct" finished-at="2021-10-25T10:14:25 EEST" duration-ms="6024" status="PASS">
          <reporter-output>
          </reporter-output>
        </test-method> <!-- subtotal_is_correct -->
        <test-method is-config="true" signature="setUp()[pri:0, instance:org.fasttrackit.tauwebshopmagento.HomepageTests@7159139f]" started-at="2021-10-25T10:14:25 EEST" name="setUp" finished-at="2021-10-25T10:14:25 EEST" duration-ms="544" status="PASS">
          <reporter-output>
          </reporter-output>
        </test-method> <!-- setUp -->
        <test-method signature="test()[pri:0, instance:org.fasttrackit.tauwebshopmagento.HomepageTests@7159139f]" started-at="2021-10-25T10:14:25 EEST" name="test" finished-at="2021-10-25T10:14:32 EEST" duration-ms="6818" status="PASS">
          <reporter-output>
          </reporter-output>
        </test-method> <!-- test -->
        <test-method is-config="true" signature="setUp()[pri:0, instance:org.fasttrackit.tauwebshopmagento.HomepageTests@7159139f]" started-at="2021-10-25T10:14:32 EEST" name="setUp" finished-at="2021-10-25T10:14:33 EEST" duration-ms="557" status="PASS">
          <reporter-output>
          </reporter-output>
        </test-method> <!-- setUp -->
        <test-method signature="when_logged_in_welcome_message_contains_users_full_name()[pri:0, instance:org.fasttrackit.tauwebshopmagento.HomepageTests@7159139f]" started-at="2021-10-25T10:14:33 EEST" name="when_logged_in_welcome_message_contains_users_full_name" finished-at="2021-10-25T10:14:37 EEST" depends-on-methods="org.fasttrackit.tauwebshopmagento.HomepageTests.I_can_login" duration-ms="4501" status="FAIL">
          <exception class="com.codeborne.selenide.ex.ElementShould">
            <message>
              <![CDATA[Element should have exact text 'Welcome, Silvia Sabou!' {p.welcome-msg}
Element: '<p class="welcome-msg">WELCOME</p>'
Screenshot: file:/C:/Users/Silvia/Desktop/Proiect%20final/tau-webshop-magento/build/reports/tests/1635146077262.2.png
Page source: file:/C:/Users/Silvia/Desktop/Proiect%20final/tau-webshop-magento/build/reports/tests/1635146077262.2.html
Timeout: 4 s.]]>
            </message>
            <full-stacktrace>
              <![CDATA[Element should have exact text 'Welcome, Silvia Sabou!' {p.welcome-msg}
Element: '<p class="welcome-msg">WELCOME</p>'
Screenshot: file:/C:/Users/Silvia/Desktop/Proiect%20final/tau-webshop-magento/build/reports/tests/1635146077262.2.png
Page source: file:/C:/Users/Silvia/Desktop/Proiect%20final/tau-webshop-magento/build/reports/tests/1635146077262.2.html
Timeout: 4 s.
at com.codeborne.selenide.impl.WebElementSource.checkCondition(WebElementSource.java:121)
at com.codeborne.selenide.commands.Should.execute(Should.java:30)
at com.codeborne.selenide.commands.Should.execute(Should.java:14)
at com.codeborne.selenide.commands.Commands.execute(Commands.java:155)
at com.codeborne.selenide.impl.SelenideElementProxy.dispatchAndRetry(SelenideElementProxy.java:133)
at com.codeborne.selenide.impl.SelenideElementProxy.invoke(SelenideElementProxy.java:85)
at jdk.proxy2/jdk.proxy2.$Proxy7.shouldHave(Unknown Source)
at main.MainPage.verifyWelcomeMessageByText(MainPage.java:244)
at org.fasttrackit.tauwebshopmagento.HomepageTests.when_logged_in_welcome_message_contains_users_full_name(HomepageTests.java:113)
at java.base/jdk.internal.reflect.NativeMethodAccessorImpl.invoke0(Native Method)
at java.base/jdk.internal.reflect.NativeMethodAccessorImpl.invoke(NativeMethodAccessorImpl.java:78)
at java.base/jdk.internal.reflect.DelegatingMethodAccessorImpl.invoke(DelegatingMethodAccessorImpl.java:43)
at java.base/java.lang.reflect.Method.invoke(Method.java:567)
at org.testng.internal.MethodInvocationHelper.invokeMethod(MethodInvocationHelper.java:133)
at org.testng.internal.TestInvoker.invokeMethod(TestInvoker.java:598)
at org.testng.internal.TestInvoker.invokeTestMethod(TestInvoker.java:173)
at org.testng.internal.MethodRunner.runInSequence(MethodRunner.java:46)
at org.testng.internal.TestInvoker$MethodInvocationAgent.invoke(TestInvoker.java:824)
at org.testng.internal.TestInvoker.invokeTestMethods(TestInvoker.java:146)
at org.testng.internal.TestMethodWorker.invokeTestMethods(TestMethodWorker.java:146)
at org.testng.internal.TestMethodWorker.run(TestMethodWorker.java:128)
at java.base/java.util.ArrayList.forEach(ArrayList.java:1511)
at org.testng.TestRunner.privateRun(TestRunner.java:794)
at org.testng.TestRunner.run(TestRunner.java:596)
at org.testng.SuiteRunner.runTest(SuiteRunner.java:377)
at org.testng.SuiteRunner.runSequentially(SuiteRunner.java:371)
at org.testng.SuiteRunner.privateRun(SuiteRunner.java:332)
at org.testng.SuiteRunner.run(SuiteRunner.java:276)
at org.testng.SuiteRunnerWorker.runSuite(SuiteRunnerWorker.java:53)
at org.testng.SuiteRunnerWorker.run(SuiteRunnerWorker.java:96)
at org.testng.TestNG.runSuitesSequentially(TestNG.java:1212)
at org.testng.TestNG.runSuitesLocally(TestNG.java:1134)
at org.testng.TestNG.runSuites(TestNG.java:1063)
at org.testng.TestNG.run(TestNG.java:1031)
at org.apache.maven.surefire.testng.TestNGExecutor.run(TestNGExecutor.java:135)
at org.apache.maven.surefire.testng.TestNGDirectoryTestSuite.executeMulti(TestNGDirectoryTestSuite.java:193)
at org.apache.maven.surefire.testng.TestNGDirectoryTestSuite.execute(TestNGDirectoryTestSuite.java:94)
at org.apache.maven.surefire.testng.TestNGProvider.invoke(TestNGProvider.java:146)
at org.apache.maven.surefire.booter.ForkedBooter.invokeProviderInSameClassLoader(ForkedBooter.java:384)
at org.apache.maven.surefire.booter.ForkedBooter.runSuitesInProcess(ForkedBooter.java:345)
at org.apache.maven.surefire.booter.ForkedBooter.execute(ForkedBooter.java:126)
at org.apache.maven.surefire.booter.ForkedBooter.main(ForkedBooter.java:418)
]]>
            </full-stacktrace>
          </exception> <!-- com.codeborne.selenide.ex.ElementShould -->
          <reporter-output>
          </reporter-output>
        </test-method> <!-- when_logged_in_welcome_message_contains_users_full_name -->
        <test-method is-config="true" signature="setUp()[pri:0, instance:org.fasttrackit.tauwebshopmagento.HomepageTests@7159139f]" started-at="2021-10-25T10:14:37 EEST" name="setUp" finished-at="2021-10-25T10:14:38 EEST" duration-ms="474" status="PASS">
          <reporter-output>
          </reporter-output>
        </test-method> <!-- setUp -->
        <test-method signature="I_can_remove_1_item_out_of_2_from_cart()[pri:0, instance:org.fasttrackit.tauwebshopmagento.HomepageTests@7159139f]" started-at="2021-10-25T10:14:38 EEST" name="I_can_remove_1_item_out_of_2_from_cart" finished-at="2021-10-25T10:14:52 EEST" duration-ms="14123" status="PASS">
          <reporter-output>
          </reporter-output>
        </test-method> <!-- I_can_remove_1_item_out_of_2_from_cart -->
      </class> <!-- org.fasttrackit.tauwebshopmagento.HomepageTests -->
    </test> <!-- Surefire test -->
  </suite> <!-- Surefire suite -->
</testng-results>
